Assignment 1: Census Data Quality for Policy Decisions – Itsnatani Anaqami - MUSA 5080 Portfolio
…
# Write your get_acs() code here
ms_data <- get_acs(
  geography = "county",
  variables = c(
    total_pop = "B01003_001",
    median_income = "B19013_001"
  ),
  state = "MS",
  year = 2022,
  survey = "acs5",
  output = "wide"
)
ms_data

# A tibble: 82 × 6
   GEOID NAME                total_popE total_popM median_incomeE median_incomeM
   <chr> <chr>                    <dbl>      <dbl>          <dbl>          <dbl>
 1 28001 Adams County, Miss…      29425         NA          37271           4671
 2 28003 Alcorn County, Mis…      34717         NA          47716           4160
 3 28005 Amite County, Miss…      12683         NA          34866           3839
 4 28007 Attala County, Mis…      17842         NA          42680           5034
 5 28009 Benton County, Mis…       7637         NA          38750           3034
 6 28011 Bolivar County, Mi…      30688         NA          37845           3176
 7 28013 Calhoun County, Mi…      13193         NA          44505           3793
 8 28015 Carroll County, Mi…       9930         NA          42285          14597
 9 28017 Chickasaw County, …      17024         NA          40224           3081
10 28019 Choctaw County, Mi…       8208         NA          41887           4482
# ℹ 72 more rows
…
# Calculate MOE percentage and reliability categories using mutate()
ms_reliability <- ms_clean %>%
  mutate(
    moe_percentage = round((median_incomeM / median_incomeE) * 100, 0),
    reliability = case_when(
      moe_percentage < 5 ~ "High Confidence",
      moe_percentage >= 5 & moe_percentage <= 10 ~ "Moderate Confidence",
      moe_percentage > 10 ~ "Low Confidence",
    ),
    unreliable_estimates = moe_percentage > 10
  )
ms_reliability

# A tibble: 82 × 10
   GEOID NAME    total_popE total_popM median_incomeE median_incomeM county_name
   <chr> <chr>        <dbl>      <dbl>          <dbl>          <dbl> <chr>      
 1 28001 Adams …      29425         NA          37271           4671 Adams      
 2 28003 Alcorn…      34717         NA          47716           4160 Alcorn     
 3 28005 Amite …      12683         NA          34866           3839 Amite      
 4 28007 Attala…      17842         NA          42680           5034 Attala     
 5 28009 Benton…       7637         NA          38750           3034 Benton     
 6 28011 Boliva…      30688         NA          37845           3176 Bolivar    
 7 28013 Calhou…      13193         NA          44505           3793 Calhoun    
 8 28015 Carrol…       9930         NA          42285          14597 Carroll    
 9 28017 Chicka…      17024         NA          40224           3081 Chickasaw  
10 28019 Chocta…       8208         NA          41887           4482 Choctaw    
# ℹ 72 more rows
# ℹ 3 more variables: moe_percentage <dbl>, reliability <chr>,
#   unreliable_estimates <lgl>
…
